%YAML 1.1
%TAG !u! tag:unity3d.com,2011:
--- !u!114 &11400000
MonoBehaviour:
  m_ObjectHideFlags: 0
  m_PrefabParentObject: {fileID: 0}
  m_PrefabInternal: {fileID: 0}
  m_GameObject: {fileID: 0}
  m_Enabled: 1
  m_EditorHideFlags: 0
  m_Script: {fileID: 11500000, guid: c45719b141bac914f8ee185e11e8d9a5, type: 3}
  m_Name: AllLevelData
  m_EditorClassIdentifier: 
  m_allLevels:
  - m_levelName: IntroCutscene
    m_isCogScene: 1
    m_levelSceneName: IntroCutscene
  - m_levelName: First Robot Scene
    m_isCogScene: 0
    m_levelSceneName: Main
  - m_levelName: SecondRobotScene
    m_isCogScene: 0
    m_levelSceneName: CatsLevel
  - m_levelName: TrhirdRobotScene
    m_isCogScene: 0
    m_levelSceneName: CatsLevel2
  - m_levelName: PreCogCutscene
    m_isCogScene: 1
    m_levelSceneName: PreCogCutscene
  - m_levelName: CogHead level
    m_isCogScene: 1
    m_levelSceneName: Dunk1
  - m_levelName: EndCutscene
    m_isCogScene: 1
    m_levelSceneName: EndCutscene
