%YAML 1.1
%TAG !u! tag:unity3d.com,2011:
--- !u!21 &2100000
Material:
  serializedVersion: 6
  m_ObjectHideFlags: 0
  m_PrefabParentObject: {fileID: 0}
  m_PrefabInternal: {fileID: 0}
  m_Name: Plane
  m_Shader: {fileID: 46, guid: 0000000000000000f000000000000000, type: 0}
  m_ShaderKeywords: _DETAIL_MULX2 _NORMALMAP _SELECT_BRDF1
  m_LightmapFlags: 4
  m_EnableInstancingVariants: 0
  m_DoubleSidedGI: 0
  m_CustomRenderQueue: -1
  stringTagMap: {}
  disabledShaderPasses: []
  m_SavedProperties:
    serializedVersion: 3
    m_TexEnvs:
    - _BumpMap:
        m_Texture: {fileID: 2800000, guid: d2c09ec00b34c054599ddf8a85d7de09, type: 3}
        m_Scale: {x: 1, y: 1}
        m_Offset: {x: 0, y: 0}
    - _DetailAlbedoMap:
        m_Texture: {fileID: 2800000, guid: 9f986c0d4ae9be8439d7712d7c0d06c3, type: 3}
        m_Scale: {x: 1, y: 1}
        m_Offset: {x: 0, y: 0}
    - _DetailMask:
        m_Texture: {fileID: 0}
        m_Scale: {x: 1, y: 1}
        m_Offset: {x: 0, y: 0}
    - _DetailNormalMap:
        m_Texture: {fileID: 2800000, guid: 97ac504dd5e0ae148bc55cf43b233fbd, type: 3}
        m_Scale: {x: 1, y: 1}
        m_Offset: {x: 0, y: 0}
    - _EmissionMap:
        m_Texture: {fileID: 2800000, guid: e1adbc51ee14d004094e035719389d6c, type: 3}
        m_Scale: {x: 1, y: 1}
        m_Offset: {x: 0, y: 0}
    - _MainTex:
        m_Texture: {fileID: 2800000, guid: e1adbc51ee14d004094e035719389d6c, type: 3}
        m_Scale: {x: 1, y: 1}
        m_Offset: {x: 0, y: 0}
    - _MetallicGlossMap:
        m_Texture: {fileID: 0}
        m_Scale: {x: 1, y: 1}
        m_Offset: {x: 0, y: 0}
    - _OcclusionMap:
        m_Texture: {fileID: 0}
        m_Scale: {x: 1, y: 1}
        m_Offset: {x: 0, y: 0}
    - _ParallaxMap:
        m_Texture: {fileID: 0}
        m_Scale: {x: 1, y: 1}
        m_Offset: {x: 0, y: 0}
    m_Floats:
    - _Amount: 0
    - _BumpScale: -0.22
    - _Cutoff: 0.5
    - _DetailNormalMapScale: 1
    - _DstBlend: 0
    - _EnableEmission: 1
    - _EnableGlossyReflections: 0
    - _EnableHeight: 0
    - _EnableSpecularHighlight: 0
    - _GlossMapScale: 0.6
    - _Glossiness: 0.328
    - _GlossyReflections: 1
    - _InvFade: 1
    - _Metallic: 0.101
    - _Mode: 0
    - _OcclusionStrength: 1
    - _Parallax: 0.02
    - _Select: 0
    - _SmoothnessTextureChannel: 0
    - _SpecularHighlights: 1
    - _SrcBlend: 1
    - _Tess: 1.01
    - _TessMax: 25
    - _TessMin: 10
    - _UVSec: 0
    - _ZWrite: 1
    m_Colors:
    - _Color: {r: 0.09191176, g: 0.115365095, b: 0.18382353, a: 1}
    - _EmissionColor: {r: 1.4999999, g: 1.4999999, b: 1.4999999, a: 1}
    - _TintColor: {r: 1, g: 1, b: 1, a: 0.5}
    - _VColor: {r: 1.2, g: 0.6970588, b: 0.6970588, a: 1}
