%YAML 1.1
%TAG !u! tag:unity3d.com,2011:
--- !u!78 &1
TagManager:
  serializedVersion: 2
  tags:
  - Robot
  - Base
  layers:
  - Default
  - TransparentFX
  - Ignore Raycast
  - 
  - Water
  - UI
  - 
  - 
  - BeaconRange
  - Background
  - Fire
  - 
  - 
  - 
  - 
  - 
  - 
  - 
  - 
  - 
  - 
  - 
  - 
  - 
  - 
  - 
  - 
  - 
  - Player
  - Mechanisms
  - PlayerCog
  - 
  m_SortingLayers:
  - name: Under
    uniqueID: 3674125383
    locked: 0
  - name: Default
    uniqueID: 0
    locked: 0
  - name: Over
    uniqueID: 1845610819
    locked: 0